population,cone length,cone width,cone mass,name,lat,long,mainland?,squirrels?,cones?,bills?,calls?,symbols,Unnamed: 9
Albion,4938.5625,2701.0625,9.61625,Albion,42.19,113.36,n,n,y,y,y,white,circle and square and triangle
Bears Paw,4312.684211,2613.210526,8.538947368,Bears Paw,48.1,109.4,n,n,y,y,y,white,circle and square and triangle
Big Snowy,4327.5,3079.166667,8.868333333,Big Snowy,46.49,109.29,n,y,y,y,y,grey,circle and square and triangle
Black Hills,3940.666667,2470,6.039333333,Black Hills,44.1,103.53,n,y,y,y,y,grey,circle and square and triangle
Crazy mountains,3822.384615,2373.692308,5.340769231,Crazy mountains,46.11,110.24,n,y,y,n,y,grey,circle and triangle
Highw. Camp,3816.714286,2483.571429,6.278571429,Highw. Camp,47.24,110.34,n,y,y,n,y,grey,circle and triangle
Highw. Geyser,4148.3,2627.6,6.969,Highw. Geyser,47.24,110.34,n,y,y,n,y,grey,circle and triangle
Medicine Bow,4043.5,2616.9,6.628,Medicine Bow,"NW part, Campbell Creek (close to Douglas)",,n,y,y,n,y,grey,circle and triangle
Pryor,3861.611111,2585,6.800555556,Pryor,45.1,108.27,n,y,y,y,y,grey,circle and square and triangle
South Hills,4983.571429,2543.642857,8.538571429,South Hills,42.1,114.16,n,n,y,y,y,white,circle and square and triangle
Wood Lake,3632.357143,2550,5.576428571,Wood Lake,47.25,112.47,y,y,y,y,y,black,circle and square and triangle